Chapter 9 Statistical Foundations
…
Chapter 9 Statistical Foundations

Samples and Populations

The population considered in the book is contained in the nycflights13 dataset. In the nycflights13 dataset contains all of the departing flights from airports in the NYC Area.

library(pacman)

p_load(mdsr, nycflights13, tidyverse, skimr, moderndive, infer)

Recall the flights dataframe.

flights

# A tibble: 336,776 × 19
    year month   day dep_time sched_dep_time dep_delay arr_time sched_arr_time
   <int> <int> <int>    <int>          <int>     <dbl>    <int>          <int>
 1  2013     1     1      517            515         2      830            819
 2  2013     1     1      533            529         4      850            830
 3  2013     1     1      542            540         2      923            850
 4  2013     1     1      544            545        -1     1004           1022
 5  2013     1     1      554            600        -6      812            837
 6  2013     1     1      554            558        -4      740            728
 7  2013     1     1      555            600        -5      913            854
 8  2013     1     1      557            600        -3      709            723
 9  2013     1     1      557            600        -3      838            846
10  2013     1     1      558            600        -2      753            745
# ℹ 336,766 more rows
# ℹ 11 more variables: arr_delay <dbl>, carrier <chr>, flight <int>,
#   tailnum <chr>, origin <chr>, dest <chr>, air_time <dbl>, distance <dbl>,
#   hour <dbl>, minute <dbl>, time_hour <dttm>

Take a sample of flights from NYC to SF. Get all of the flights to SF and take a sample of 25 of them.

Note that I did not set a seed for the sample, so your answers will differ from what is in the book.

SF <- flights %>% 
  filter(dest == "SFO", !is.na(arr_delay))
SF

# A tibble: 13,173 × 19
    year month   day dep_time sched_dep_time dep_delay arr_time sched_arr_time
   <int> <int> <int>    <int>          <int>     <dbl>    <int>          <int>
 1  2013     1     1      558            600        -2      923            937
 2  2013     1     1      611            600        11      945            931
 3  2013     1     1      655            700        -5     1037           1045
 4  2013     1     1      729            730        -1     1049           1115
 5  2013     1     1      734            737        -3     1047           1113
 6  2013     1     1      745            745         0     1135           1125
 7  2013     1     1      746            746         0     1119           1129
 8  2013     1     1      803            800         3     1132           1144
 9  2013     1     1      826            817         9     1145           1158
10  2013     1     1     1029           1030        -1     1427           1355
# ℹ 13,163 more rows
# ℹ 11 more variables: arr_delay <dbl>, carrier <chr>, flight <int>,
#   tailnum <chr>, origin <chr>, dest <chr>, air_time <dbl>, distance <dbl>,
#   hour <dbl>, minute <dbl>, time_hour <dttm>

sf_25 <- SF %>%
  dplyr::slice_sample(n = 25)
sf_25

# A tibble: 25 × 19
    year month   day dep_time sched_dep_time dep_delay arr_time sched_arr_time
   <int> <int> <int>    <int>          <int>     <dbl>    <int>          <int>
 1  2013     6     2     2020           2020         0     2337              3
 2  2013    10    13     1622           1630        -8     1954           2010
 3  2013     1     8     1455           1457        -2     1827           1823
 4  2013     8    15     1648           1645         3     1945           1958
 5  2013     5    28     1912           1900        12     2249           2251
 6  2013     7    12     2050           1729       201     2344           2055
 7  2013    12     2     1635           1630         5     2042           2010
 8  2013    11     8     2030           2019        11        8           2355
 9  2013    12    11      954           1000        -6     1307           1321
10  2013    11    15     1035           1030         5     1405           1335
# ℹ 15 more rows
# ℹ 11 more variables: arr_delay <dbl>, carrier <chr>, flight <int>,
#   tailnum <chr>, origin <chr>, dest <chr>, air_time <dbl>, distance <dbl>,
#   hour <dbl>, minute <dbl>, time_hour <dttm>
…
# A tibble: 3 × 4
   year month   day dep_time
  <int> <int> <int>    <int>
1  2013     3    18     1744
2  2013     7    17     1252
3  2013     7    17     1252

n <- 200

orig_sample <- SF %>% 
  slice_sample(n = n, replace = FALSE)
orig_sample

# A tibble: 200 × 19
    year month   day dep_time sched_dep_time dep_delay arr_time sched_arr_time
   <int> <int> <int>    <int>          <int>     <dbl>    <int>          <int>
 1  2013    11     9     1855           1900        -5     2210           2246
 2  2013     4    20     1142           1145        -3     1436           1452
 3  2013     2    12      632            635        -3      946           1002
 4  2013     5    14     1044           1045        -1     1351           1420
 5  2013     7    14      729            730        -1     1031           1045
 6  2013     1    19     1227           1101        86     1549           1433
 7  2013     5    20      832            820        12     1119           1156
 8  2013    12    10     1634           1630         4     2012           2010
 9  2013     4     2     1530           1530         0     1905           1922
10  2013     6    20     1543           1529        14     1843           1856
# ℹ 190 more rows
# ℹ 11 more variables: arr_delay <dbl>, carrier <chr>, flight <int>,
#   tailnum <chr>, origin <chr>, dest <chr>, air_time <dbl>, distance <dbl>,
#   hour <dbl>, minute <dbl>, time_hour <dttm>
…
Response: arr_delay (numeric)
# A tibble: 1 × 1
   stat
  <dbl>
1 -0.82

bootstrap_distribution <- orig_sample %>% 
  specify(formula = arr_delay ~ NULL) %>% 
  generate(reps = num_trials, type = "bootstrap") %>% 
  calculate(stat = "mean")
bootstrap_distribution

Response: arr_delay (numeric)
# A tibble: 500 × 2
   replicate   stat
       <int>  <dbl>
 1         1 -2.74 
 2         2 -1.82 
 3         3 -2.44 
 4         4 -0.405
 5         5 -5.12 
 6         6  0.64 
 7         7  1.46 
 8         8 -2.92 
 9         9 -4.34 
10        10  6.14 
# ℹ 490 more rows
…
