Chapter 9 Statistical Foundations
…
Chapter 9 Statistical Foundations

Samples and Populations

The population considered in the book is contained in the nycflights13 dataset. In the nycflights13 dataset contains all of the departing flights from airports in the NYC Area.

library(pacman)

p_load(mdsr, nycflights13, tidyverse, skimr)

Recall the flights dataframe.

flights

# A tibble: 336,776 × 19
    year month   day dep_time sched_dep_time dep_delay arr_time sched_arr_time
   <int> <int> <int>    <int>          <int>     <dbl>    <int>          <int>
 1  2013     1     1      517            515         2      830            819
 2  2013     1     1      533            529         4      850            830
 3  2013     1     1      542            540         2      923            850
 4  2013     1     1      544            545        -1     1004           1022
 5  2013     1     1      554            600        -6      812            837
 6  2013     1     1      554            558        -4      740            728
 7  2013     1     1      555            600        -5      913            854
 8  2013     1     1      557            600        -3      709            723
 9  2013     1     1      557            600        -3      838            846
10  2013     1     1      558            600        -2      753            745
# ℹ 336,766 more rows
# ℹ 11 more variables: arr_delay <dbl>, carrier <chr>, flight <int>,
#   tailnum <chr>, origin <chr>, dest <chr>, air_time <dbl>, distance <dbl>,
#   hour <dbl>, minute <dbl>, time_hour <dttm>

Take a sample of flights from NYC to SF. Get all of the flights to SF and take a sample of 25 of them.

Note that I did not set a seed for the sample, so your answers will differ from what is in the book.

SF <- flights %>% 
  filter(dest == "SFO", !is.na(arr_delay))
SF

# A tibble: 13,173 × 19
    year month   day dep_time sched_dep_time dep_delay arr_time sched_arr_time
   <int> <int> <int>    <int>          <int>     <dbl>    <int>          <int>
 1  2013     1     1      558            600        -2      923            937
 2  2013     1     1      611            600        11      945            931
 3  2013     1     1      655            700        -5     1037           1045
 4  2013     1     1      729            730        -1     1049           1115
 5  2013     1     1      734            737        -3     1047           1113
 6  2013     1     1      745            745         0     1135           1125
 7  2013     1     1      746            746         0     1119           1129
 8  2013     1     1      803            800         3     1132           1144
 9  2013     1     1      826            817         9     1145           1158
10  2013     1     1     1029           1030        -1     1427           1355
# ℹ 13,163 more rows
# ℹ 11 more variables: arr_delay <dbl>, carrier <chr>, flight <int>,
#   tailnum <chr>, origin <chr>, dest <chr>, air_time <dbl>, distance <dbl>,
#   hour <dbl>, minute <dbl>, time_hour <dttm>

sf_25 <- SF %>%
  slice_sample(n = 25)
sf_25

# A tibble: 25 × 19
    year month   day dep_time sched_dep_time dep_delay arr_time sched_arr_time
   <int> <int> <int>    <int>          <int>     <dbl>    <int>          <int>
 1  2013     8    12     1021           1030        -9     1351           1345
 2  2013    10    28     1544           1529        15     1912           1847
 3  2013     7    19      836            840        -4     1127           1143
 4  2013     6    12     1023           1029        -6     1338           1348
 5  2013    10    16      834            834         0     1159           1156
 6  2013     9    27     1528           1530        -2     1856           1853
 7  2013     1    20      652            700        -8     1021           1045
 8  2013    11     7     2125           2120         5       54            100
 9  2013     3    12     1956           1949         7     2250           2321
10  2013     7     7     2204           1525       399      107           1823
# ℹ 15 more rows
# ℹ 11 more variables: arr_delay <dbl>, carrier <chr>, flight <int>,
#   tailnum <chr>, origin <chr>, dest <chr>, air_time <dbl>, distance <dbl>,
#   hour <dbl>, minute <dbl>, time_hour <dttm>
…
three_flights %>% slice_sample(n = 3, replace = TRUE)

# A tibble: 3 × 4
   year month   day dep_time
  <int> <int> <int>    <int>
1  2013     6    29     1040
2  2013    12    24     2020
3  2013     6    29     1040

n <- 200
orig_sample <- SF %>% 
  slice_sample(n = n, replace = FALSE)
orig_sample

# A tibble: 200 × 19
    year month   day dep_time sched_dep_time dep_delay arr_time sched_arr_time
   <int> <int> <int>    <int>          <int>     <dbl>    <int>          <int>
 1  2013     1    14     1127           1031        56     1438           1403
 2  2013     2     2      601            600         1      930            927
 3  2013     9     5     1903           1850        13     2211           2220
 4  2013     6    10     2017           1939        38     2359           2318
 5  2013     7     2     1758           1729        29     2050           2055
 6  2013     1    25     1425           1429        -4     1801           1754
 7  2013    11    15     1832           1834        -2     2155           2209
 8  2013     2     2      745            745         0     1136           1125
 9  2013    12     7      904            909        -5     1259           1248
10  2013     9    16     1650           1700       -10     2004           2027
# ℹ 190 more rows
# ℹ 11 more variables: arr_delay <dbl>, carrier <chr>, flight <int>,
#   tailnum <chr>, origin <chr>, dest <chr>, air_time <dbl>, distance <dbl>,
#   hour <dbl>, minute <dbl>, time_hour <dttm>
…
